{
  "runtimeTarget": {
    "name": ".NETStandard,Version=v2.0/win-x64",
    "signature": ""
  },
  "compilationOptions": {},
  "targets": {
    ".NETStandard,Version=v2.0": {},
    ".NETStandard,Version=v2.0/win-x64": {
      "CodeAnalysis/1.0.0": {
        "dependencies": {
          "CsvHelper": "27.2.1",
          "Microsoft.CSharp": "4.7.0",
          "Microsoft.CodeAnalysis.CSharp": "4.1.0",
          "Microsoft.ML": "1.7.1",
          "Microsoft.ML.LightGbm": "1.7.1",
          "NETStandard.Library": "2.0.3",
          "Newtonsoft.Json": "13.0.1",
          "System.Text.Json": "6.0.5"
        },
        "runtime": {
          "CodeAnalysis.dll": {}
        }
      },
      "CsvHelper/27.2.1": {
        "dependencies": {
          "Microsoft.Bcl.AsyncInterfaces": "6.0.0",
          "Microsoft.Bcl.HashCode": "1.0.0",
          "Microsoft.CSharp": "4.7.0",
          "System.Memory": "4.5.4",
          "System.Threading.Tasks.Extensions": "4.5.4"
        },
        "runtime": {
          "lib/netstandard2.0/CsvHelper.dll": {
            "assemblyVersion": "27.0.0.0",
            "fileVersion": "27.2.1.0"
          }
        }
      },
      "LightGBM/2.3.1": {
        "native": {
          "runtimes/win-x64/native/lib_lightgbm.dll": {
            "fileVersion": "0.0.0.0"
          },
          "runtimes/win-x64/native/lightgbm.exe": {
            "fileVersion": "0.0.0.0"
          }
        }
      },
      "Microsoft.Bcl.AsyncInterfaces/6.0.0": {
        "dependencies": {
          "System.Threading.Tasks.Extensions": "4.5.4"
        },
        "runtime": {
          "lib/netstandard2.0/Microsoft.Bcl.AsyncInterfaces.dll": {
            "assemblyVersion": "6.0.0.0",
            "fileVersion": "6.0.21.52210"
          }
        }
      },
      "Microsoft.Bcl.HashCode/1.0.0": {
        "runtime": {
          "lib/netstandard2.0/Microsoft.Bcl.HashCode.dll": {
            "assemblyVersion": "1.0.0.0",
            "fileVersion": "4.700.19.46214"
          }
        }
      },
      "Microsoft.CodeAnalysis.Analyzers/3.3.3": {},
      "Microsoft.CodeAnalysis.Common/4.1.0": {
        "dependencies": {
          "Microsoft.CodeAnalysis.Analyzers": "3.3.3",
          "System.Collections.Immutable": "5.0.0",
          "System.Memory": "4.5.4",
          "System.Reflection.Metadata": "5.0.0",
          "System.Runtime.CompilerServices.Unsafe": "6.0.0",
          "System.Text.Encoding.CodePages": "4.5.1",
          "System.Threading.Tasks.Extensions": "4.5.4"
        },
        "runtime": {
          "lib/netstandard2.0/Microsoft.CodeAnalysis.dll": {
            "assemblyVersion": "4.1.0.0",
            "fileVersion": "4.100.22.11411"
          }
        },
        "resources": {
          "lib/netstandard2.0/cs/Microsoft.CodeAnalysis.resources.dll": {
            "locale": "cs"
          },
          "lib/netstandard2.0/de/Microsoft.CodeAnalysis.resources.dll": {
            "locale": "de"
          },
          "lib/netstandard2.0/es/Microsoft.CodeAnalysis.resources.dll": {
            "locale": "es"
          },
          "lib/netstandard2.0/fr/Microsoft.CodeAnalysis.resources.dll": {
            "locale": "fr"
          },
          "lib/netstandard2.0/it/Microsoft.CodeAnalysis.resources.dll": {
            "locale": "it"
          },
          "lib/netstandard2.0/ja/Microsoft.CodeAnalysis.resources.dll": {
            "locale": "ja"
          },
          "lib/netstandard2.0/ko/Microsoft.CodeAnalysis.resources.dll": {
            "locale": "ko"
          },
          "lib/netstandard2.0/pl/Microsoft.CodeAnalysis.resources.dll": {
            "locale": "pl"
          },
          "lib/netstandard2.0/pt-BR/Microsoft.CodeAnalysis.resources.dll": {
            "locale": "pt-BR"
          },
          "lib/netstandard2.0/ru/Microsoft.CodeAnalysis.resources.dll": {
            "locale": "ru"
          },
          "lib/netstandard2.0/tr/Microsoft.CodeAnalysis.resources.dll": {
            "locale": "tr"
          },
          "lib/netstandard2.0/zh-Hans/Microsoft.CodeAnalysis.resources.dll": {
            "locale": "zh-Hans"
          },
          "lib/netstandard2.0/zh-Hant/Microsoft.CodeAnalysis.resources.dll": {
            "locale": "zh-Hant"
          }
        }
      },
      "Microsoft.CodeAnalysis.CSharp/4.1.0": {
        "dependencies": {
          "Microsoft.CodeAnalysis.Common": "4.1.0"
        },
        "runtime": {
          "lib/netstandard2.0/Microsoft.CodeAnalysis.CSharp.dll": {
            "assemblyVersion": "4.1.0.0",
            "fileVersion": "4.100.22.11411"
          }
        },
        "resources": {
          "lib/netstandard2.0/cs/Microsoft.CodeAnalysis.CSharp.resources.dll": {
            "locale": "cs"
          },
          "lib/netstandard2.0/de/Microsoft.CodeAnalysis.CSharp.resources.dll": {
            "locale": "de"
          },
          "lib/netstandard2.0/es/Microsoft.CodeAnalysis.CSharp.resources.dll": {
            "locale": "es"
          },
          "lib/netstandard2.0/fr/Microsoft.CodeAnalysis.CSharp.resources.dll": {
            "locale": "fr"
          },
          "lib/netstandard2.0/it/Microsoft.CodeAnalysis.CSharp.resources.dll": {
            "locale": "it"
          },
          "lib/netstandard2.0/ja/Microsoft.CodeAnalysis.CSharp.resources.dll": {
            "locale": "ja"
          },
          "lib/netstandard2.0/ko/Microsoft.CodeAnalysis.CSharp.resources.dll": {
            "locale": "ko"
          },
          "lib/netstandard2.0/pl/Microsoft.CodeAnalysis.CSharp.resources.dll": {
            "locale": "pl"
          },
          "lib/netstandard2.0/pt-BR/Microsoft.CodeAnalysis.CSharp.resources.dll": {
            "locale": "pt-BR"
          },
          "lib/netstandard2.0/ru/Microsoft.CodeAnalysis.CSharp.resources.dll": {
            "locale": "ru"
          },
          "lib/netstandard2.0/tr/Microsoft.CodeAnalysis.CSharp.resources.dll": {
            "locale": "tr"
          },
          "lib/netstandard2.0/zh-Hans/Microsoft.CodeAnalysis.CSharp.resources.dll": {
            "locale": "zh-Hans"
          },
          "lib/netstandard2.0/zh-Hant/Microsoft.CodeAnalysis.CSharp.resources.dll": {
            "locale": "zh-Hant"
          }
        }
      },
      "Microsoft.CSharp/4.7.0": {
        "runtime": {
          "lib/netstandard2.0/Microsoft.CSharp.dll": {
            "assemblyVersion": "4.0.5.0",
            "fileVersion": "4.700.19.56404"
          }
        }
      },
      "Microsoft.ML/1.7.1": {
        "dependencies": {
          "Microsoft.ML.CpuMath": "1.7.1",
          "Microsoft.ML.DataView": "1.7.1",
          "Newtonsoft.Json": "13.0.1",
          "System.CodeDom": "4.4.0",
          "System.Collections.Immutable": "5.0.0",
          "System.Memory": "4.5.4",
          "System.Reflection.Emit.Lightweight": "4.3.0",
          "System.Threading.Channels": "4.7.1"
        },
        "runtime": {
          "lib/netstandard2.0/Microsoft.ML.Core.dll": {
            "assemblyVersion": "1.0.0.0",
            "fileVersion": "1.700.122.15804"
          },
          "lib/netstandard2.0/Microsoft.ML.Data.dll": {
            "assemblyVersion": "1.0.0.0",
            "fileVersion": "1.700.122.15804"
          },
          "lib/netstandard2.0/Microsoft.ML.KMeansClustering.dll": {
            "assemblyVersion": "1.0.0.0",
            "fileVersion": "1.700.122.15804"
          },
          "lib/netstandard2.0/Microsoft.ML.PCA.dll": {
            "assemblyVersion": "1.0.0.0",
            "fileVersion": "1.700.122.15804"
          },
          "lib/netstandard2.0/Microsoft.ML.StandardTrainers.dll": {
            "assemblyVersion": "1.0.0.0",
            "fileVersion": "1.700.122.15804"
          },
          "lib/netstandard2.0/Microsoft.ML.Transforms.dll": {
            "assemblyVersion": "1.0.0.0",
            "fileVersion": "1.700.122.15804"
          },
          "lib/netstandard2.0/Microsoft.ML.dll": {
            "assemblyVersion": "1.0.0.0",
            "fileVersion": "1.700.122.15804"
          }
        },
        "native": {
          "runtimes/win-x64/native/LdaNative.dll": {
            "fileVersion": "0.1900.122.15804"
          }
        }
      },
      "Microsoft.ML.CpuMath/1.7.1": {
        "dependencies": {
          "System.Memory": "4.5.4"
        },
        "runtime": {
          "lib/netstandard2.0/Microsoft.ML.CpuMath.dll": {
            "assemblyVersion": "1.0.0.0",
            "fileVersion": "1.700.122.15804"
          }
        },
        "native": {
          "runtimes/win-x64/nativeassets/netstandard2.0/CpuMathNative.dll": {
            "fileVersion": "0.1900.122.15804"
          }
        }
      },
      "Microsoft.ML.DataView/1.7.1": {
        "dependencies": {
          "System.Collections.Immutable": "5.0.0",
          "System.Memory": "4.5.4"
        },
        "runtime": {
          "lib/netstandard2.0/Microsoft.ML.DataView.dll": {
            "assemblyVersion": "1.0.0.0",
            "fileVersion": "1.700.122.15804"
          }
        }
      },
      "Microsoft.ML.FastTree/1.7.1": {
        "dependencies": {
          "Microsoft.ML": "1.7.1"
        },
        "runtime": {
          "lib/netstandard2.0/Microsoft.ML.FastTree.dll": {
            "assemblyVersion": "1.0.0.0",
            "fileVersion": "1.700.122.15804"
          }
        },
        "native": {
          "runtimes/win-x64/native/FastTreeNative.dll": {
            "fileVersion": "0.1900.122.15804"
          }
        }
      },
      "Microsoft.ML.LightGbm/1.7.1": {
        "dependencies": {
          "LightGBM": "2.3.1",
          "Microsoft.ML": "1.7.1",
          "Microsoft.ML.FastTree": "1.7.1"
        },
        "runtime": {
          "lib/netstandard2.0/Microsoft.ML.LightGbm.dll": {
            "assemblyVersion": "1.0.0.0",
            "fileVersion": "1.700.122.15804"
          }
        }
      },
      "Microsoft.NETCore.Platforms/1.1.0": {},
      "Microsoft.NETCore.Targets/1.1.0": {},
      "NETStandard.Library/2.0.3": {
        "dependencies": {
          "Microsoft.NETCore.Platforms": "1.1.0"
        }
      },
      "Newtonsoft.Json/13.0.1": {
        "runtime": {
          "lib/netstandard2.0/Newtonsoft.Json.dll": {
            "assemblyVersion": "13.0.0.0",
            "fileVersion": "13.0.1.25517"
          }
        }
      },
      "runtime.any.System.IO/4.3.0": {
        "runtime": {
          "lib/netstandard1.5/System.IO.dll": {
            "assemblyVersion": "4.1.1.0",
            "fileVersion": "4.6.24705.1"
          }
        }
      },
      "runtime.any.System.Reflection/4.3.0": {
        "runtime": {
          "lib/netstandard1.5/System.Reflection.dll": {
            "assemblyVersion": "4.1.1.0",
            "fileVersion": "4.6.24705.1"
          }
        }
      },
      "runtime.any.System.Reflection.Primitives/4.3.0": {
        "runtime": {
          "lib/netstandard1.3/System.Reflection.Primitives.dll": {
            "assemblyVersion": "4.0.2.0",
            "fileVersion": "4.6.24705.1"
          }
        }
      },
      "runtime.any.System.Runtime/4.3.0": {
        "dependencies": {
          "System.Private.Uri": "4.3.0"
        },
        "runtime": {
          "lib/netstandard1.5/System.Runtime.dll": {
            "assemblyVersion": "4.1.1.0",
            "fileVersion": "4.6.24705.1"
          }
        }
      },
      "runtime.any.System.Text.Encoding/4.3.0": {
        "runtime": {
          "lib/netstandard1.3/System.Text.Encoding.dll": {
            "assemblyVersion": "4.0.12.0",
            "fileVersion": "4.6.24705.1"
          }
        }
      },
      "runtime.any.System.Threading.Tasks/4.3.0": {
        "runtime": {
          "lib/netstandard1.3/System.Threading.Tasks.dll": {
            "assemblyVersion": "4.0.12.0",
            "fileVersion": "4.6.24705.1"
          }
        }
      },
      "System.Buffers/4.5.1": {
        "runtime": {
          "lib/netstandard2.0/System.Buffers.dll": {
            "assemblyVersion": "4.0.3.0",
            "fileVersion": "4.6.28619.1"
          }
        }
      },
      "System.CodeDom/4.4.0": {
        "runtime": {
          "lib/netstandard2.0/System.CodeDom.dll": {
            "assemblyVersion": "4.0.0.0",
            "fileVersion": "4.6.25519.3"
          }
        }
      },
      "System.Collections.Immutable/5.0.0": {
        "dependencies": {
          "System.Memory": "4.5.4"
        },
        "runtime": {
          "lib/netstandard2.0/System.Collections.Immutable.dll": {
            "assemblyVersion": "5.0.0.0",
            "fileVersion": "5.0.20.51904"
          }
        }
      },
      "System.IO/4.3.0": {
        "dependencies": {
          "Microsoft.NETCore.Platforms": "1.1.0",
          "Microsoft.NETCore.Targets": "1.1.0",
          "System.Runtime": "4.3.0",
          "System.Text.Encoding": "4.3.0",
          "System.Threading.Tasks": "4.3.0",
          "runtime.any.System.IO": "4.3.0"
        }
      },
      "System.Memory/4.5.4": {
        "dependencies": {
          "System.Buffers": "4.5.1",
          "System.Numerics.Vectors": "4.5.0",
          "System.Runtime.CompilerServices.Unsafe": "6.0.0"
        },
        "runtime": {
          "lib/netstandard2.0/System.Memory.dll": {
            "assemblyVersion": "4.0.1.1",
            "fileVersion": "4.6.28619.1"
          }
        }
      },
      "System.Numerics.Vectors/4.5.0": {
        "runtime": {
          "lib/netstandard2.0/System.Numerics.Vectors.dll": {
            "assemblyVersion": "4.1.4.0",
            "fileVersion": "4.6.26515.6"
          }
        }
      },
      "System.Private.Uri/4.3.0": {
        "dependencies": {
          "Microsoft.NETCore.Platforms": "1.1.0",
          "Microsoft.NETCore.Targets": "1.1.0"
        }
      },
      "System.Reflection/4.3.0": {
        "dependencies": {
          "Microsoft.NETCore.Platforms": "1.1.0",
          "Microsoft.NETCore.Targets": "1.1.0",
          "System.IO": "4.3.0",
          "System.Reflection.Primitives": "4.3.0",
          "System.Runtime": "4.3.0",
          "runtime.any.System.Reflection": "4.3.0"
        }
      },
      "System.Reflection.Emit.ILGeneration/4.3.0": {
        "dependencies": {
          "System.Reflection": "4.3.0",
          "System.Reflection.Primitives": "4.3.0",
          "System.Runtime": "4.3.0"
        },
        "runtime": {
          "lib/netstandard1.3/System.Reflection.Emit.ILGeneration.dll": {
            "assemblyVersion": "4.0.2.0",
            "fileVersion": "4.6.24705.1"
          }
        }
      },
      "System.Reflection.Emit.Lightweight/4.3.0": {
        "dependencies": {
          "System.Reflection": "4.3.0",
          "System.Reflection.Emit.ILGeneration": "4.3.0",
          "System.Reflection.Primitives": "4.3.0",
          "System.Runtime": "4.3.0"
        },
        "runtime": {
          "lib/netstandard1.3/System.Reflection.Emit.Lightweight.dll": {
            "assemblyVersion": "4.0.2.0",
            "fileVersion": "4.6.24705.1"
          }
        }
      },
      "System.Reflection.Metadata/5.0.0": {
        "dependencies": {
          "System.Collections.Immutable": "5.0.0"
        },
        "runtime": {
          "lib/netstandard2.0/System.Reflection.Metadata.dll": {
            "assemblyVersion": "5.0.0.0",
            "fileVersion": "5.0.20.51904"
          }
        }
      },
      "System.Reflection.Primitives/4.3.0": {
        "dependencies": {
          "Microsoft.NETCore.Platforms": "1.1.0",
          "Microsoft.NETCore.Targets": "1.1.0",
          "System.Runtime": "4.3.0",
          "runtime.any.System.Reflection.Primitives": "4.3.0"
        }
      },
      "System.Runtime/4.3.0": {
        "dependencies": {
          "Microsoft.NETCore.Platforms": "1.1.0",
          "Microsoft.NETCore.Targets": "1.1.0",
          "runtime.any.System.Runtime": "4.3.0"
        }
      },
      "System.Runtime.CompilerServices.Unsafe/6.0.0": {
        "runtime": {
          "lib/netstandard2.0/System.Runtime.CompilerServices.Unsafe.dll": {
            "assemblyVersion": "6.0.0.0",
            "fileVersion": "6.0.21.52210"
          }
        }
      },
      "System.Text.Encoding/4.3.0": {
        "dependencies": {
          "Microsoft.NETCore.Platforms": "1.1.0",
          "Microsoft.NETCore.Targets": "1.1.0",
          "System.Runtime": "4.3.0",
          "runtime.any.System.Text.Encoding": "4.3.0"
        }
      },
      "System.Text.Encoding.CodePages/4.5.1": {
        "dependencies": {
          "System.Runtime.CompilerServices.Unsafe": "6.0.0"
        },
        "runtime": {
          "runtimes/win/lib/netstandard2.0/System.Text.Encoding.CodePages.dll": {
            "assemblyVersion": "4.1.1.0",
            "fileVersion": "4.6.27129.4"
          }
        }
      },
      "System.Text.Encodings.Web/6.0.0": {
        "dependencies": {
          "System.Buffers": "4.5.1",
          "System.Memory": "4.5.4",
          "System.Runtime.CompilerServices.Unsafe": "6.0.0"
        },
        "runtime": {
          "lib/netstandard2.0/System.Text.Encodings.Web.dll": {
            "assemblyVersion": "6.0.0.0",
            "fileVersion": "6.0.21.52210"
          }
        }
      },
      "System.Text.Json/6.0.5": {
        "dependencies": {
          "Microsoft.Bcl.AsyncInterfaces": "6.0.0",
          "System.Buffers": "4.5.1",
          "System.Memory": "4.5.4",
          "System.Numerics.Vectors": "4.5.0",
          "System.Runtime.CompilerServices.Unsafe": "6.0.0",
          "System.Text.Encodings.Web": "6.0.0",
          "System.Threading.Tasks.Extensions": "4.5.4"
        },
        "runtime": {
          "lib/netstandard2.0/System.Text.Json.dll": {
            "assemblyVersion": "6.0.0.0",
            "fileVersion": "6.0.622.26707"
          }
        }
      },
      "System.Threading.Channels/4.7.1": {
        "dependencies": {
          "System.Threading.Tasks.Extensions": "4.5.4"
        },
        "runtime": {
          "lib/netstandard2.0/System.Threading.Channels.dll": {
            "assemblyVersion": "4.0.2.0",
            "fileVersion": "4.700.20.21406"
          }
        }
      },
      "System.Threading.Tasks/4.3.0": {
        "dependencies": {
          "Microsoft.NETCore.Platforms": "1.1.0",
          "Microsoft.NETCore.Targets": "1.1.0",
          "System.Runtime": "4.3.0",
          "runtime.any.System.Threading.Tasks": "4.3.0"
        }
      },
      "System.Threading.Tasks.Extensions/4.5.4": {
        "dependencies": {
          "System.Runtime.CompilerServices.Unsafe": "6.0.0"
        },
        "runtime": {
          "lib/netstandard2.0/System.Threading.Tasks.Extensions.dll": {
            "assemblyVersion": "4.2.0.1",
            "fileVersion": "4.6.28619.1"
          }
        }
      }
    }
  },
  "libraries": {
    "CodeAnalysis/1.0.0": {
      "type": "project",
      "serviceable": false,
      "sha512": ""
    },
    "CsvHelper/27.2.1": {
      "type": "package",
      "serviceable": true,
      "sha512": "sha512-uS5ix5hL9gL5taiAG//CScyJa8Fn1ZOh3FDhDvf4laboESFs84mCNropfp7PIt8xCkyQofljFpqu1B5UnSXjyA==",
      "path": "csvhelper/27.2.1",
      "hashPath": "csvhelper.27.2.1.nupkg.sha512"
    },
    "LightGBM/2.3.1": {
      "type": "package",
      "serviceable": true,
      "sha512": "sha512-2YVf5McWa6PT00EJnVYTZLAvTQ2YArIWUmMJ3Fu46ZL1RdKnqCy1s+iUeWxvEuviaQ/cXt6M/EaWpVHnXGc9gg==",
      "path": "lightgbm/2.3.1",
      "hashPath": "lightgbm.2.3.1.nupkg.sha512"
    },
    "Microsoft.Bcl.AsyncInterfaces/6.0.0": {
      "type": "package",
      "serviceable": true,
      "sha512": "sha512-UcSjPsst+DfAdJGVDsu346FX0ci0ah+lw3WRtn18NUwEqRt70HaOQ7lI72vy3+1LxtqI3T5GWwV39rQSrCzAeg==",
      "path": "microsoft.bcl.asyncinterfaces/6.0.0",
      "hashPath": "microsoft.bcl.asyncinterfaces.6.0.0.nupkg.sha512"
    },
    "Microsoft.Bcl.HashCode/1.0.0": {
      "type": "package",
      "serviceable": true,
      "sha512": "sha512-iACTGPNnDlUI4Vj2oRIenMRwjDTCPQ8nPgpeD7GI4tCHp3aDIdduXfUY5/Hk2Zj6dZd1X51ayRBAvOuYDl65JQ==",
      "path": "microsoft.bcl.hashcode/1.0.0",
      "hashPath": "microsoft.bcl.hashcode.1.0.0.nupkg.sha512"
    },
    "Microsoft.CodeAnalysis.Analyzers/3.3.3": {
      "type": "package",
      "serviceable": true,
      "sha512": "sha512-j/rOZtLMVJjrfLRlAMckJLPW/1rze9MT1yfWqSIbUPGRu1m1P0fuo9PmqapwsmePfGB5PJrudQLvmUOAMF0DqQ==",
      "path": "microsoft.codeanalysis.analyzers/3.3.3",
      "hashPath": "microsoft.codeanalysis.analyzers.3.3.3.nupkg.sha512"
    },
    "Microsoft.CodeAnalysis.Common/4.1.0": {
      "type": "package",
      "serviceable": true,
      "sha512": "sha512-bNzTyxP3iD5FPFHfVDl15Y6/wSoI7e3MeV0lOaj9igbIKTjgrmuw6LoVJ06jUNFA7+KaDC/OIsStWl/FQJz6sQ==",
      "path": "microsoft.codeanalysis.common/4.1.0",
      "hashPath": "microsoft.codeanalysis.common.4.1.0.nupkg.sha512"
    },
    "Microsoft.CodeAnalysis.CSharp/4.1.0": {
      "type": "package",
      "serviceable": true,
      "sha512": "sha512-sbu6kDGzo9bfQxuqWpeEE7I9P30bSuZEnpDz9/qz20OU6pm79Z63+/BsAzO2e/R/Q97kBrpj647wokZnEVr97w==",
      "path": "microsoft.codeanalysis.csharp/4.1.0",
      "hashPath": "microsoft.codeanalysis.csharp.4.1.0.nupkg.sha512"
    },
    "Microsoft.CSharp/4.7.0": {
      "type": "package",
      "serviceable": true,
      "sha512": "sha512-pTj+D3uJWyN3My70i2Hqo+OXixq3Os2D1nJ2x92FFo6sk8fYS1m1WLNTs0Dc1uPaViH0YvEEwvzddQ7y4rhXmA==",
      "path": "microsoft.csharp/4.7.0",
      "hashPath": "microsoft.csharp.4.7.0.nupkg.sha512"
    },
    "Microsoft.ML/1.7.1": {
      "type": "package",
      "serviceable": true,
      "sha512": "sha512-t33nUR6A8VwYMInbsEM5eSGJaHWdScikAX7mER0Yh0H4e85W7FRw0KBlCixHHuivSF2y7ez+2IGpfb2PUgVVow==",
      "path": "microsoft.ml/1.7.1",
      "hashPath": "microsoft.ml.1.7.1.nupkg.sha512"
    },
    "Microsoft.ML.CpuMath/1.7.1": {
      "type": "package",
      "serviceable": true,
      "sha512": "sha512-kkUm/o1pBFAtRI+5LRwtJpvXhf8l8YyeQ8OYZNkTGrn5exn5C3YrwrRRX3fDz7yPPKA38XY4EPy2WVltArO0aw==",
      "path": "microsoft.ml.cpumath/1.7.1",
      "hashPath": "microsoft.ml.cpumath.1.7.1.nupkg.sha512"
    },
    "Microsoft.ML.DataView/1.7.1": {
      "type": "package",
      "serviceable": true,
      "sha512": "sha512-j7BwSzNJUjxI8aSkzv4yCi0/kem1mYFVWiuLQcG0vcMEs3BNqvkunt+qdRmUMYuPY7/9AK22a70laAxjcJ2GGA==",
      "path": "microsoft.ml.dataview/1.7.1",
      "hashPath": "microsoft.ml.dataview.1.7.1.nupkg.sha512"
    },
    "Microsoft.ML.FastTree/1.7.1": {
      "type": "package",
      "serviceable": true,
      "sha512": "sha512-xg0UW0fq6ZuaxIeAS5osgIX4Nb8xyk6UBD/Ier3mhGRdU5mnhF7Nhv5KHhy2NXRA8o9JzLfl2ocVU9zT6D9EYw==",
      "path": "microsoft.ml.fasttree/1.7.1",
      "hashPath": "microsoft.ml.fasttree.1.7.1.nupkg.sha512"
    },
    "Microsoft.ML.LightGbm/1.7.1": {
      "type": "package",
      "serviceable": true,
      "sha512": "sha512-UkPA6I9iUsuqyNA2SBOeKeEmplQ6amJC0e7BqgEGcSvG/zLq/3nPdVeUd1EWuL6QeCyxp1B/VeemN5Nzc2e89g==",
      "path": "microsoft.ml.lightgbm/1.7.1",
      "hashPath": "microsoft.ml.lightgbm.1.7.1.nupkg.sha512"
    },
    "Microsoft.NETCore.Platforms/1.1.0": {
      "type": "package",
      "serviceable": true,
      "sha512": "sha512-kz0PEW2lhqygehI/d6XsPCQzD7ff7gUJaVGPVETX611eadGsA3A877GdSlU0LRVMCTH/+P3o2iDTak+S08V2+A==",
      "path": "microsoft.netcore.platforms/1.1.0",
      "hashPath": "microsoft.netcore.platforms.1.1.0.nupkg.sha512"
    },
    "Microsoft.NETCore.Targets/1.1.0": {
      "type": "package",
      "serviceable": true,
      "sha512": "sha512-aOZA3BWfz9RXjpzt0sRJJMjAscAUm3Hoa4UWAfceV9UTYxgwZ1lZt5nO2myFf+/jetYQo4uTP7zS8sJY67BBxg==",
      "path": "microsoft.netcore.targets/1.1.0",
      "hashPath": "microsoft.netcore.targets.1.1.0.nupkg.sha512"
    },
    "NETStandard.Library/2.0.3": {
      "type": "package",
      "serviceable": true,
      "sha512": "sha512-st47PosZSHrjECdjeIzZQbzivYBJFv6P2nv4cj2ypdI204DO+vZ7l5raGMiX4eXMJ53RfOIg+/s4DHVZ54Nu2A==",
      "path": "netstandard.library/2.0.3",
      "hashPath": "netstandard.library.2.0.3.nupkg.sha512"
    },
    "Newtonsoft.Json/13.0.1": {
      "type": "package",
      "serviceable": true,
      "sha512": "sha512-ppPFpBcvxdsfUonNcvITKqLl3bqxWbDCZIzDWHzjpdAHRFfZe0Dw9HmA0+za13IdyrgJwpkDTDA9fHaxOrt20A==",
      "path": "newtonsoft.json/13.0.1",
      "hashPath": "newtonsoft.json.13.0.1.nupkg.sha512"
    },
    "runtime.any.System.IO/4.3.0": {
      "type": "package",
      "serviceable": true,
      "sha512": "sha512-SDZ5AD1DtyRoxYtEcqQ3HDlcrorMYXZeCt7ZhG9US9I5Vva+gpIWDGMkcwa5XiKL0ceQKRZIX2x0XEjLX7PDzQ==",
      "path": "runtime.any.system.io/4.3.0",
      "hashPath": "runtime.any.system.io.4.3.0.nupkg.sha512"
    },
    "runtime.any.System.Reflection/4.3.0": {
      "type": "package",
      "serviceable": true,
      "sha512": "sha512-hLC3A3rI8jipR5d9k7+f0MgRCW6texsAp0MWkN/ci18FMtQ9KH7E2vDn/DH2LkxsszlpJpOn9qy6Z6/69rH6eQ==",
      "path": "runtime.any.system.reflection/4.3.0",
      "hashPath": "runtime.any.system.reflection.4.3.0.nupkg.sha512"
    },
    "runtime.any.System.Reflection.Primitives/4.3.0": {
      "type": "package",
      "serviceable": true,
      "sha512": "sha512-Nrm1p3armp6TTf2xuvaa+jGTTmncALWFq22CpmwRvhDf6dE9ZmH40EbOswD4GnFLrMRS0Ki6Kx5aUPmKK/hZBg==",
      "path": "runtime.any.system.reflection.primitives/4.3.0",
      "hashPath": "runtime.any.system.reflection.primitives.4.3.0.nupkg.sha512"
    },
    "runtime.any.System.Runtime/4.3.0": {
      "type": "package",
      "serviceable": true,
      "sha512": "sha512-fRS7zJgaG9NkifaAxGGclDDoRn9HC7hXACl52Or06a/fxdzDajWb5wov3c6a+gVSlekRoexfjwQSK9sh5um5LQ==",
      "path": "runtime.any.system.runtime/4.3.0",
      "hashPath": "runtime.any.system.runtime.4.3.0.nupkg.sha512"
    },
    "runtime.any.System.Text.Encoding/4.3.0": {
      "type": "package",
      "serviceable": true,
      "sha512": "sha512-+ihI5VaXFCMVPJNstG4O4eo1CfbrByLxRrQQTqOTp1ttK0kUKDqOdBSTaCB2IBk/QtjDrs6+x4xuezyMXdm0HQ==",
      "path": "runtime.any.system.text.encoding/4.3.0",
      "hashPath": "runtime.any.system.text.encoding.4.3.0.nupkg.sha512"
    },
    "runtime.any.System.Threading.Tasks/4.3.0": {
      "type": "package",
      "serviceable": true,
      "sha512": "sha512-OhBAVBQG5kFj1S+hCEQ3TUHBAEtZ3fbEMgZMRNdN8A0Pj4x+5nTELEqL59DU0TjKVE6II3dqKw4Dklb3szT65w==",
      "path": "runtime.any.system.threading.tasks/4.3.0",
      "hashPath": "runtime.any.system.threading.tasks.4.3.0.nupkg.sha512"
    },
    "System.Buffers/4.5.1": {
      "type": "package",
      "serviceable": true,
      "sha512": "sha512-Rw7ijyl1qqRS0YQD/WycNst8hUUMgrMH4FCn1nNm27M4VxchZ1js3fVjQaANHO5f3sN4isvP4a+Met9Y4YomAg==",
      "path": "system.buffers/4.5.1",
      "hashPath": "system.buffers.4.5.1.nupkg.sha512"
    },
    "System.CodeDom/4.4.0": {
      "type": "package",
      "serviceable": true,
      "sha512": "sha512-2sCCb7doXEwtYAbqzbF/8UAeDRMNmPaQbU2q50Psg1J9KzumyVVCgKQY8s53WIPTufNT0DpSe9QRvVjOzfDWBA==",
      "path": "system.codedom/4.4.0",
      "hashPath": "system.codedom.4.4.0.nupkg.sha512"
    },
    "System.Collections.Immutable/5.0.0": {
      "type": "package",
      "serviceable": true,
      "sha512": "sha512-FXkLXiK0sVVewcso0imKQoOxjoPAj42R8HtjjbSjVPAzwDfzoyoznWxgA3c38LDbN9SJux1xXoXYAhz98j7r2g==",
      "path": "system.collections.immutable/5.0.0",
      "hashPath": "system.collections.immutable.5.0.0.nupkg.sha512"
    },
    "System.IO/4.3.0": {
      "type": "package",
      "serviceable": true,
      "sha512": "sha512-3qjaHvxQPDpSOYICjUoTsmoq5u6QJAFRUITgeT/4gqkF1bajbSmb1kwSxEA8AHlofqgcKJcM8udgieRNhaJ5Cg==",
      "path": "system.io/4.3.0",
      "hashPath": "system.io.4.3.0.nupkg.sha512"
    },
    "System.Memory/4.5.4": {
      "type": "package",
      "serviceable": true,
      "sha512": "sha512-1MbJTHS1lZ4bS4FmsJjnuGJOu88ZzTT2rLvrhW7Ygic+pC0NWA+3hgAen0HRdsocuQXCkUTdFn9yHJJhsijDXw==",
      "path": "system.memory/4.5.4",
      "hashPath": "system.memory.4.5.4.nupkg.sha512"
    },
    "System.Numerics.Vectors/4.5.0": {
      "type": "package",
      "serviceable": true,
      "sha512": "sha512-QQTlPTl06J/iiDbJCiepZ4H//BVraReU4O4EoRw1U02H5TLUIT7xn3GnDp9AXPSlJUDyFs4uWjWafNX6WrAojQ==",
      "path": "system.numerics.vectors/4.5.0",
      "hashPath": "system.numerics.vectors.4.5.0.nupkg.sha512"
    },
    "System.Private.Uri/4.3.0": {
      "type": "package",
      "serviceable": true,
      "sha512": "sha512-I4SwANiUGho1esj4V4oSlPllXjzCZDE+5XXso2P03LW2vOda2Enzh8DWOxwN6hnrJyp314c7KuVu31QYhRzOGg==",
      "path": "system.private.uri/4.3.0",
      "hashPath": "system.private.uri.4.3.0.nupkg.sha512"
    },
    "System.Reflection/4.3.0": {
      "type": "package",
      "serviceable": true,
      "sha512": "sha512-KMiAFoW7MfJGa9nDFNcfu+FpEdiHpWgTcS2HdMpDvt9saK3y/G4GwprPyzqjFH9NTaGPQeWNHU+iDlDILj96aQ==",
      "path": "system.reflection/4.3.0",
      "hashPath": "system.reflection.4.3.0.nupkg.sha512"
    },
    "System.Reflection.Emit.ILGeneration/4.3.0": {
      "type": "package",
      "serviceable": true,
      "sha512": "sha512-59tBslAk9733NXLrUJrwNZEzbMAcu8k344OYo+wfSVygcgZ9lgBdGIzH/nrg3LYhXceynyvTc8t5/GD4Ri0/ng==",
      "path": "system.reflection.emit.ilgeneration/4.3.0",
      "hashPath": "system.reflection.emit.ilgeneration.4.3.0.nupkg.sha512"
    },
    "System.Reflection.Emit.Lightweight/4.3.0": {
      "type": "package",
      "serviceable": true,
      "sha512": "sha512-oadVHGSMsTmZsAF864QYN1t1QzZjIcuKU3l2S9cZOwDdDueNTrqq1yRj7koFfIGEnKpt6NjpL3rOzRhs4ryOgA==",
      "path": "system.reflection.emit.lightweight/4.3.0",
      "hashPath": "system.reflection.emit.lightweight.4.3.0.nupkg.sha512"
    },
    "System.Reflection.Metadata/5.0.0": {
      "type": "package",
      "serviceable": true,
      "sha512": "sha512-5NecZgXktdGg34rh1OenY1rFNDCI8xSjFr+Z4OU4cU06AQHUdRnIIEeWENu3Wl4YowbzkymAIMvi3WyK9U53pQ==",
      "path": "system.reflection.metadata/5.0.0",
      "hashPath": "system.reflection.metadata.5.0.0.nupkg.sha512"
    },
    "System.Reflection.Primitives/4.3.0": {
      "type": "package",
      "serviceable": true,
      "sha512": "sha512-5RXItQz5As4xN2/YUDxdpsEkMhvw3e6aNveFXUn4Hl/udNTCNhnKp8lT9fnc3MhvGKh1baak5CovpuQUXHAlIA==",
      "path": "system.reflection.primitives/4.3.0",
      "hashPath": "system.reflection.primitives.4.3.0.nupkg.sha512"
    },
    "System.Runtime/4.3.0": {
      "type": "package",
      "serviceable": true,
      "sha512": "sha512-JufQi0vPQ0xGnAczR13AUFglDyVYt4Kqnz1AZaiKZ5+GICq0/1MH/mO/eAJHt/mHW1zjKBJd7kV26SrxddAhiw==",
      "path": "system.runtime/4.3.0",
      "hashPath": "system.runtime.4.3.0.nupkg.sha512"
    },
    "System.Runtime.CompilerServices.Unsafe/6.0.0": {
      "type": "package",
      "serviceable": true,
      "sha512": "sha512-/iUeP3tq1S0XdNNoMz5C9twLSrM/TH+qElHkXWaPvuNOt+99G75NrV0OS2EqHx5wMN7popYjpc8oTjC1y16DLg==",
      "path": "system.runtime.compilerservices.unsafe/6.0.0",
      "hashPath": "system.runtime.compilerservices.unsafe.6.0.0.nupkg.sha512"
    },
    "System.Text.Encoding/4.3.0": {
      "type": "package",
      "serviceable": true,
      "sha512": "sha512-BiIg+KWaSDOITze6jGQynxg64naAPtqGHBwDrLaCtixsa5bKiR8dpPOHA7ge3C0JJQizJE+sfkz1wV+BAKAYZw==",
      "path": "system.text.encoding/4.3.0",
      "hashPath": "system.text.encoding.4.3.0.nupkg.sha512"
    },
    "System.Text.Encoding.CodePages/4.5.1": {
      "type": "package",
      "serviceable": true,
      "sha512": "sha512-4J2JQXbftjPMppIHJ7IC+VXQ9XfEagN92vZZNoG12i+zReYlim5dMoXFC1Zzg7tsnKDM7JPo5bYfFK4Jheq44w==",
      "path": "system.text.encoding.codepages/4.5.1",
      "hashPath": "system.text.encoding.codepages.4.5.1.nupkg.sha512"
    },
    "System.Text.Encodings.Web/6.0.0": {
      "type": "package",
      "serviceable": true,
      "sha512": "sha512-Vg8eB5Tawm1IFqj4TVK1czJX89rhFxJo9ELqc/Eiq0eXy13RK00eubyU6TJE6y+GQXjyV5gSfiewDUZjQgSE0w==",
      "path": "system.text.encodings.web/6.0.0",
      "hashPath": "system.text.encodings.web.6.0.0.nupkg.sha512"
    },
    "System.Text.Json/6.0.5": {
      "type": "package",
      "serviceable": true,
      "sha512": "sha512-SSH+YYrMpvLcy7Orzb5K1tSyffnFacWahyxCCjYH1PbSHdAF4dekmIetBurFKgtTHDmwEe/J2Csi/7niRH6d/g==",
      "path": "system.text.json/6.0.5",
      "hashPath": "system.text.json.6.0.5.nupkg.sha512"
    },
    "System.Threading.Channels/4.7.1": {
      "type": "package",
      "serviceable": true,
      "sha512": "sha512-6akRtHK/wab3246t4p5v3HQrtQk8LboOt5T4dtpNgsp3zvDeM4/Gx8V12t0h+c/W9/enUrilk8n6EQqdQorZAA==",
      "path": "system.threading.channels/4.7.1",
      "hashPath": "system.threading.channels.4.7.1.nupkg.sha512"
    },
    "System.Threading.Tasks/4.3.0": {
      "type": "package",
      "serviceable": true,
      "sha512": "sha512-LbSxKEdOUhVe8BezB/9uOGGppt+nZf6e1VFyw6v3DN6lqitm0OSn2uXMOdtP0M3W4iMcqcivm2J6UgqiwwnXiA==",
      "path": "system.threading.tasks/4.3.0",
      "hashPath": "system.threading.tasks.4.3.0.nupkg.sha512"
    },
    "System.Threading.Tasks.Extensions/4.5.4": {
      "type": "package",
      "serviceable": true,
      "sha512": "sha512-zteT+G8xuGu6mS+mzDzYXbzS7rd3K6Fjb9RiZlYlJPam2/hU7JCBZBVEcywNuR+oZ1ncTvc/cq0faRr3P01OVg==",
      "path": "system.threading.tasks.extensions/4.5.4",
      "hashPath": "system.threading.tasks.extensions.4.5.4.nupkg.sha512"
    }
  }
}