%YAML 1.1
%TAG !u! tag:unity3d.com,2011:
--- !u!114 &11400000
MonoBehaviour:
  m_ObjectHideFlags: 0
  m_CorrespondingSourceObject: {fileID: 0}
  m_PrefabInstance: {fileID: 0}
  m_PrefabAsset: {fileID: 0}
  m_GameObject: {fileID: 0}
  m_Enabled: 1
  m_EditorHideFlags: 0
  m_Script: {fileID: 11500000, guid: ff771ccdf4150419d9ff4d342b069aae, type: 3}
  m_Name: 3-RPCs
  m_EditorClassIdentifier: 
  Title:
    m_Untranslated: RPCs
  m_Paragraphs:
    m_Items:
    - m_Type: 6
      Title:
        m_Untranslated: 
      Text:
        m_Untranslated: 
      m_Tutorial: {fileID: 0}
      m_Image: {fileID: 0}
      m_Video: {fileID: 0}
      m_CriteriaCompletion: 0
      m_Criteria:
        m_Items: []
      m_MaskingSettings:
        m_MaskingEnabled: 1
        m_UnmaskedViews:
        - m_SelectorType: 1
          m_ViewType:
            m_TypeName: 
          m_EditorWindowType:
            m_TypeName: MUN.EpicVR_Asset_Setup, MUN.Editor, Version=0.0.0.0, Culture=neutral,
              PublicKeyToken=null
          m_AlternateEditorWindowTypes:
            m_Items: []
          m_MaskType: 0
          m_MaskSizeModifier: 0
          m_UnmaskedControls: []
        - m_SelectorType: 1
          m_ViewType:
            m_TypeName: 
          m_EditorWindowType:
            m_TypeName: MUN.EpicVR_Asset_Setup_RPCs, MUN.Editor, Version=0.0.0.0,
              Culture=neutral, PublicKeyToken=null
          m_AlternateEditorWindowTypes:
            m_Items: []
          m_MaskType: 0
          m_MaskSizeModifier: 0
          m_UnmaskedControls: []
      m_Summary: 
      m_Description: 
      m_InstructionBoxTitle: 
      m_InstructionText: 
      m_TutorialButtonText: 
    - m_Type: 0
      Title:
        m_Untranslated: 
      Text:
        m_Untranslated: "RPC \u2013 Remote Procedure Call is when a computer program
          causes a procedure (subroutine) to execute in a different address space,
          commonly on another computer on a shared network."
      m_Tutorial: {fileID: 0}
      m_Image: {fileID: 0}
      m_Video: {fileID: 0}
      m_CriteriaCompletion: 0
      m_Criteria:
        m_Items: []
      m_MaskingSettings:
        m_MaskingEnabled: 0
        m_UnmaskedViews: []
      m_Summary: 
      m_Description: 
      m_InstructionBoxTitle: 
      m_InstructionText: 
      m_TutorialButtonText: 
    - m_Type: 1
      Title:
        m_Untranslated: Go to RPCs tab
      Text:
        m_Untranslated: "Click the RPCs tab, then click the \u201CRefresh\u201D button
          to display an up-to-date list of your rpcs in the application."
      m_Tutorial: {fileID: 0}
      m_Image: {fileID: 0}
      m_Video: {fileID: 0}
      m_CriteriaCompletion: 0
      m_Criteria:
        m_Items:
        - Type:
            m_TypeName: Unity.Tutorials.Core.Editor.ArbitraryCriterion, Unity.Tutorials.Core.Editor,
              Version=0.0.0.0, Culture=neutral, PublicKeyToken=null
          Criterion: {fileID: 6568243165422623052}
      m_MaskingSettings:
        m_MaskingEnabled: 0
        m_UnmaskedViews: []
      m_Summary: 
      m_Description: 
      m_InstructionBoxTitle: 
      m_InstructionText: 
      m_TutorialButtonText: 
    - m_Type: 2
      Title:
        m_Untranslated: 
      Text:
        m_Untranslated: 'Next tutorial: First Multiplayer'
      m_Tutorial: {fileID: 11400000, guid: cdc4f6202b5e8a84e9434ab02deb053c, type: 2}
      m_Image: {fileID: 0}
      m_Video: {fileID: 0}
      m_CriteriaCompletion: 0
      m_Criteria:
        m_Items: []
      m_MaskingSettings:
        m_MaskingEnabled: 0
        m_UnmaskedViews: []
      m_Summary: 
      m_Description: 
      m_InstructionBoxTitle: 
      m_InstructionText: 
      m_TutorialButtonText: 
  m_CameraSettings:
    m_CameraMode: 0
    m_FocusMode: 0
    m_Orthographic: 0
    m_Size: 0
    m_Pivot: {x: 0, y: 0, z: 0}
    m_Rotation: {x: 0, y: 0, z: 0, w: 0}
    m_FrameObject:
      m_SceneGuid: 
      m_GameObjectGuid: 
      m_SerializedComponentType:
        m_TypeName: 
      m_ComponentIndex: 0
      m_AssetObject: {fileID: 0}
      m_Prefab: {fileID: 0}
    m_Enabled: 0
  NextButton:
    m_Untranslated: Next
  DoneButton:
    m_Untranslated: Done
  m_CompletedSound: {fileID: 8300000, guid: 2aa2357be5c79f447946caaa0621406f, type: 3}
  m_AutoAdvance: 0
  Showing:
    m_PersistentCalls:
      m_Calls: []
  Shown:
    m_PersistentCalls:
      m_Calls: []
  Staying:
    m_PersistentCalls:
      m_Calls: []
  CriteriaValidated:
    m_PersistentCalls:
      m_Calls: []
  MaskingSettingsChanged:
    m_PersistentCalls:
      m_Calls: []
  NonMaskingSettingsChanged:
    m_PersistentCalls:
      m_Calls: []
  m_OnBeforePageShown:
    m_PersistentCalls:
      m_Calls: []
  m_OnAfterPageShown:
    m_PersistentCalls:
      m_Calls: []
  m_OnTutorialPageStay:
    m_PersistentCalls:
      m_Calls: []
  m_OnBeforeTutorialQuit:
    m_PersistentCalls:
      m_Calls: []
  m_NextButton: Next
  m_DoneButton: Done
--- !u!114 &6568243165422623052
MonoBehaviour:
  m_ObjectHideFlags: 1
  m_CorrespondingSourceObject: {fileID: 0}
  m_PrefabInstance: {fileID: 0}
  m_PrefabAsset: {fileID: 0}
  m_GameObject: {fileID: 0}
  m_Enabled: 1
  m_EditorHideFlags: 0
  m_Script: {fileID: 11500000, guid: 7231e8df50e16c74c979c4a2affab91b, type: 3}
  m_Name: 
  m_EditorClassIdentifier: 
  Completed:
    m_PersistentCalls:
      m_Calls: []
  Invalidated:
    m_PersistentCalls:
      m_Calls: []
  isTesting: 0
  m_Callback:
    _target: {fileID: 11400000, guid: c9d7c418c2d384e4496fde2a53b726c7, type: 2}
    _methodName: IsRpcTabSelected
    _args: []
    _dynamic: 0
    _typeName: Unity.Tutorials.Core.Editor.ArbitraryCriterion+BoolCallback, Unity.Tutorials.Core.Editor,
      Version=0.0.0.0, Culture=neutral, PublicKeyToken=null
    dirty: 0
  m_AutoCompleteCallback:
    _target: {fileID: 11400000, guid: c9d7c418c2d384e4496fde2a53b726c7, type: 2}
    _methodName: IsRpcTabSelected
    _args: []
    _dynamic: 0
    _typeName: Unity.Tutorials.Core.Editor.ArbitraryCriterion+BoolCallback, Unity.Tutorials.Core.Editor,
      Version=0.0.0.0, Culture=neutral, PublicKeyToken=null
    dirty: 0
