%YAML 1.1
%TAG !u! tag:unity3d.com,2011:
--- !u!114 &-4397175579391794696
MonoBehaviour:
  m_ObjectHideFlags: 1
  m_CorrespondingSourceObject: {fileID: 0}
  m_PrefabInstance: {fileID: 0}
  m_PrefabAsset: {fileID: 0}
  m_GameObject: {fileID: 0}
  m_Enabled: 1
  m_EditorHideFlags: 0
  m_Script: {fileID: 11500000, guid: 7231e8df50e16c74c979c4a2affab91b, type: 3}
  m_Name: 
  m_EditorClassIdentifier: 
  Completed:
    m_PersistentCalls:
      m_Calls: []
  Invalidated:
    m_PersistentCalls:
      m_Calls: []
  isTesting: 0
  m_Callback:
    _target: {fileID: 11400000, guid: 6f75c00f4a19c144aa2371cb5aa43552, type: 2}
    _methodName: MunServiceWindowOpened
    _args: []
    _dynamic: 0
    _typeName: Unity.Tutorials.Core.Editor.ArbitraryCriterion+BoolCallback, Unity.Tutorials.Core.Editor,
      Version=0.0.0.0, Culture=neutral, PublicKeyToken=null
    dirty: 0
  m_AutoCompleteCallback:
    _target: {fileID: 11400000, guid: 6f75c00f4a19c144aa2371cb5aa43552, type: 2}
    _methodName: MunServiceWindowOpened
    _args: []
    _dynamic: 0
    _typeName: Unity.Tutorials.Core.Editor.ArbitraryCriterion+BoolCallback, Unity.Tutorials.Core.Editor,
      Version=0.0.0.0, Culture=neutral, PublicKeyToken=null
    dirty: 0
--- !u!114 &11400000
MonoBehaviour:
  m_ObjectHideFlags: 0
  m_CorrespondingSourceObject: {fileID: 0}
  m_PrefabInstance: {fileID: 0}
  m_PrefabAsset: {fileID: 0}
  m_GameObject: {fileID: 0}
  m_Enabled: 1
  m_EditorHideFlags: 0
  m_Script: {fileID: 11500000, guid: ff771ccdf4150419d9ff4d342b069aae, type: 3}
  m_Name: 0-OpenServiceWindow
  m_EditorClassIdentifier: 
  Title:
    m_Untranslated: Service window
  m_Paragraphs:
    m_Items:
    - m_Type: 6
      Title:
        m_Untranslated: 
      Text:
        m_Untranslated: 
      m_Tutorial: {fileID: 0}
      m_Image: {fileID: 0}
      m_Video: {fileID: 0}
      m_CriteriaCompletion: 0
      m_Criteria:
        m_Items: []
      m_MaskingSettings:
        m_MaskingEnabled: 1
        m_UnmaskedViews: []
      m_Summary: 
      m_Description: 
      m_InstructionBoxTitle: 
      m_InstructionText: 
      m_TutorialButtonText: 
    - m_Type: 0
      Title:
        m_Untranslated: 
      Text:
        m_Untranslated: To open <b>Dashboard</b> menu go to the top menu bar <b>MUN
          / MUN Dashboard</b>.
      m_Tutorial: {fileID: 0}
      m_Image: {fileID: 0}
      m_Video: {fileID: 0}
      m_CriteriaCompletion: 0
      m_Criteria:
        m_Items: []
      m_MaskingSettings:
        m_MaskingEnabled: 0
        m_UnmaskedViews: []
      m_Summary: 
      m_Description: 
      m_InstructionBoxTitle: 
      m_InstructionText: 
      m_TutorialButtonText: 
    - m_Type: 1
      Title:
        m_Untranslated: Open Dashboard window
      Text:
        m_Untranslated: To open Dashboard window click top menu bar <b>MUN / MUN
          Dashboard</b>
      m_Tutorial: {fileID: 0}
      m_Image: {fileID: 0}
      m_Video: {fileID: 0}
      m_CriteriaCompletion: 0
      m_Criteria:
        m_Items:
        - Type:
            m_TypeName: Unity.Tutorials.Core.Editor.ArbitraryCriterion, Unity.Tutorials.Core.Editor,
              Version=0.0.0.0, Culture=neutral, PublicKeyToken=null
          Criterion: {fileID: -4397175579391794696}
      m_MaskingSettings:
        m_MaskingEnabled: 0
        m_UnmaskedViews: []
      m_Summary: 
      m_Description: 
      m_InstructionBoxTitle: 
      m_InstructionText: 
      m_TutorialButtonText: 
  m_CameraSettings:
    m_CameraMode: 0
    m_FocusMode: 0
    m_Orthographic: 0
    m_Size: 0
    m_Pivot: {x: 0, y: 0, z: 0}
    m_Rotation: {x: 0, y: 0, z: 0, w: 0}
    m_FrameObject:
      m_SceneGuid: 
      m_GameObjectGuid: 
      m_SerializedComponentType:
        m_TypeName: 
      m_ComponentIndex: 0
      m_AssetObject: {fileID: 0}
      m_Prefab: {fileID: 0}
    m_Enabled: 0
  NextButton:
    m_Untranslated: Next
  DoneButton:
    m_Untranslated: Done
  m_CompletedSound: {fileID: 8300000, guid: 2aa2357be5c79f447946caaa0621406f, type: 3}
  m_AutoAdvance: 0
  Showing:
    m_PersistentCalls:
      m_Calls: []
  Shown:
    m_PersistentCalls:
      m_Calls: []
  Staying:
    m_PersistentCalls:
      m_Calls: []
  CriteriaValidated:
    m_PersistentCalls:
      m_Calls: []
  MaskingSettingsChanged:
    m_PersistentCalls:
      m_Calls: []
  NonMaskingSettingsChanged:
    m_PersistentCalls:
      m_Calls: []
  m_OnBeforePageShown:
    m_PersistentCalls:
      m_Calls: []
  m_OnAfterPageShown:
    m_PersistentCalls:
      m_Calls: []
  m_OnTutorialPageStay:
    m_PersistentCalls:
      m_Calls: []
  m_OnBeforeTutorialQuit:
    m_PersistentCalls:
      m_Calls: []
  m_NextButton: Next
  m_DoneButton: Done
